xof 0302txt 0064

Mesh Body0 {
774;
-0.7;0.1;0.7;,
-0.7;0;0.3;,
-0.7;0;0.7;,
-0.7;0.1;0.3;,
-0.7;0.1;0.2;,
-0.7;0;-0.2;,
-0.7;0;0.2;,
-0.7;0.1;-0.2;,
-0.7;0.1;-0.3;,
-0.7;0;-0.7;,
-0.7;0;-0.3;,
-0.7;0.1;-0.7;,
-0.7;0.2;0.7;,
-0.7;0.2;0.3;,
-0.7;0.2;0.2;,
-0.7;0.2;-0.2;,
-0.7;0.2;-0.3;,
-0.7;0.2;-0.7;,
-0.6;0.3;0.7;,
-0.6;0.2;0.4;,
-0.6;0.2;0.7;,
-0.6;0.3;0.4;,
-0.6;0.3;0.2;,
-0.6;0.2;-0.1;,
-0.6;0.2;0.2;,
-0.6;0.3;-0.1;,
-0.6;0.3;-0.3;,
-0.6;0.2;-0.6;,
-0.6;0.2;-0.3;,
-0.6;0.3;-0.6;,
-0.5;0.4;0.7;,
-0.5;0.3;0.5;,
-0.5;0.3;0.7;,
-0.5;0.4;0.5;,
-0.5;0.4;0.2;,
-0.5;0.3;0;,
-0.5;0.3;0.2;,
-0.5;0.4;0;,
-0.5;0.4;-0.3;,
-0.5;0.3;-0.5;,
-0.5;0.3;-0.3;,
-0.5;0.4;-0.5;,
-0.4;0.5;0.7;,
-0.4;0.4;0.6;,
-0.4;0.4;0.7;,
-0.4;0.5;0.6;,
-0.4;0.5;0.2;,
-0.4;0.4;0.1;,
-0.4;0.4;0.2;,
-0.4;0.5;0.1;,
-0.4;0.5;-0.3;,
-0.4;0.4;-0.4;,
-0.4;0.4;-0.3;,
-0.4;0.5;-0.4;,
-0.2;0.1;0.7;,
-0.2;0;0.3;,
-0.2;0;0.7;,
-0.2;0.1;0.3;,
-0.2;0.1;0.2;,
-0.2;0;-0.2;,
-0.2;0;0.2;,
-0.2;0.1;-0.2;,
-0.2;0.1;-0.3;,
-0.2;0;-0.7;,
-0.2;0;-0.3;,
-0.2;0.1;-0.7;,
-0.2;0.2;0.7;,
-0.2;0.2;0.3;,
-0.2;0.2;0.2;,
-0.2;0.2;-0.2;,
-0.2;0.2;-0.3;,
-0.2;0.2;-0.7;,
-0.1;0.3;0.7;,
-0.1;0.2;0.4;,
-0.1;0.2;0.7;,
-0.1;0.3;0.4;,
-0.1;0.3;0.2;,
-0.1;0.2;-0.1;,
-0.1;0.2;0.2;,
-0.1;0.3;-0.1;,
-0.1;0.3;-0.3;,
-0.1;0.2;-0.6;,
-0.1;0.2;-0.3;,
-0.1;0.3;-0.6;,
0;0.4;0.7;,
0;0.3;0.5;,
0;0.3;0.7;,
0;0.4;0.5;,
0;0.4;0.2;,
0;0.3;0;,
0;0.3;0.2;,
0;0.4;0;,
0;0.4;-0.3;,
0;0.3;-0.5;,
0;0.3;-0.3;,
0;0.4;-0.5;,
0.1;0.5;0.7;,
0.1;0.4;0.6;,
0.1;0.4;0.7;,
0.1;0.5;0.6;,
0.1;0.5;0.2;,
0.1;0.4;0.1;,
0.1;0.4;0.2;,
0.1;0.5;0.1;,
0.1;0.5;-0.3;,
0.1;0.4;-0.4;,
0.1;0.4;-0.3;,
0.1;0.5;-0.4;,
0.3;0.1;0.7;,
0.3;0;0.3;,
0.3;0;0.7;,
0.3;0.1;0.3;,
0.3;0.1;0.2;,
0.3;0;-0.2;,
0.3;0;0.2;,
0.3;0.1;-0.2;,
0.3;0.1;-0.3;,
0.3;0;-0.7;,
0.3;0;-0.3;,
0.3;0.1;-0.7;,
0.3;0.2;0.7;,
0.3;0.2;0.3;,
0.3;0.2;0.2;,
0.3;0.2;-0.2;,
0.3;0.2;-0.3;,
0.3;0.2;-0.7;,
0.4;0.3;0.7;,
0.4;0.2;0.4;,
0.4;0.2;0.7;,
0.4;0.3;0.4;,
0.4;0.3;0.2;,
0.4;0.2;-0.1;,
0.4;0.2;0.2;,
0.4;0.3;-0.1;,
0.4;0.3;-0.3;,
0.4;0.2;-0.6;,
0.4;0.2;-0.3;,
0.4;0.3;-0.6;,
0.5;0.4;0.7;,
0.5;0.3;0.5;,
0.5;0.3;0.7;,
0.5;0.4;0.5;,
0.5;0.4;0.2;,
0.5;0.3;0;,
0.5;0.3;0.2;,
0.5;0.4;0;,
0.5;0.4;-0.3;,
0.5;0.3;-0.5;,
0.5;0.3;-0.3;,
0.5;0.4;-0.5;,
0.6;0.5;0.7;,
0.6;0.4;0.6;,
0.6;0.4;0.7;,
0.6;0.5;0.6;,
0.6;0.5;0.2;,
0.6;0.4;0.1;,
0.6;0.4;0.2;,
0.6;0.5;0.1;,
0.6;0.5;-0.3;,
0.6;0.4;-0.4;,
0.6;0.4;-0.3;,
0.6;0.5;-0.4;,
-0.3;0;0.7;,
-0.3;0;0.3;,
-0.3;0.1;0.7;,
-0.3;0.1;0.3;,
-0.3;0;0.2;,
-0.3;0;-0.2;,
-0.3;0.1;0.2;,
-0.3;0.1;-0.2;,
-0.3;0;-0.3;,
-0.3;0;-0.7;,
-0.3;0.1;-0.3;,
-0.3;0.1;-0.7;,
-0.3;0.2;0.4;,
-0.3;0.2;0.3;,
-0.3;0.2;-0.1;,
-0.3;0.2;-0.2;,
-0.3;0.2;-0.6;,
-0.3;0.2;-0.7;,
-0.3;0.3;0.5;,
-0.3;0.3;0.4;,
-0.3;0.3;0;,
-0.3;0.3;-0.1;,
-0.3;0.3;-0.5;,
-0.3;0.3;-0.6;,
-0.3;0.4;0.6;,
-0.3;0.4;0.5;,
-0.3;0.4;0.1;,
-0.3;0.4;0;,
-0.3;0.4;-0.4;,
-0.3;0.4;-0.5;,
-0.3;0.5;0.7;,
-0.3;0.5;0.6;,
-0.3;0.5;0.2;,
-0.3;0.5;0.1;,
-0.3;0.5;-0.3;,
-0.3;0.5;-0.4;,
0.2;0;0.7;,
0.2;0;0.3;,
0.2;0.1;0.7;,
0.2;0.1;0.3;,
0.2;0;0.2;,
0.2;0;-0.2;,
0.2;0.1;0.2;,
0.2;0.1;-0.2;,
0.2;0;-0.3;,
0.2;0;-0.7;,
0.2;0.1;-0.3;,
0.2;0.1;-0.7;,
0.2;0.2;0.4;,
0.2;0.2;0.3;,
0.2;0.2;-0.1;,
0.2;0.2;-0.2;,
0.2;0.2;-0.6;,
0.2;0.2;-0.7;,
0.2;0.3;0.5;,
0.2;0.3;0.4;,
0.2;0.3;0;,
0.2;0.3;-0.1;,
0.2;0.3;-0.5;,
0.2;0.3;-0.6;,
0.2;0.4;0.6;,
0.2;0.4;0.5;,
0.2;0.4;0.1;,
0.2;0.4;0;,
0.2;0.4;-0.4;,
0.2;0.4;-0.5;,
0.2;0.5;0.7;,
0.2;0.5;0.6;,
0.2;0.5;0.2;,
0.2;0.5;0.1;,
0.2;0.5;-0.3;,
0.2;0.5;-0.4;,
0.7;0;0.7;,
0.7;0;0.3;,
0.7;0.1;0.7;,
0.7;0.1;0.3;,
0.7;0;0.2;,
0.7;0;-0.2;,
0.7;0.1;0.2;,
0.7;0.1;-0.2;,
0.7;0;-0.3;,
0.7;0;-0.7;,
0.7;0.1;-0.3;,
0.7;0.1;-0.7;,
0.7;0.2;0.4;,
0.7;0.2;0.3;,
0.7;0.2;-0.1;,
0.7;0.2;-0.2;,
0.7;0.2;-0.6;,
0.7;0.2;-0.7;,
0.7;0.3;0.5;,
0.7;0.3;0.4;,
0.7;0.3;0;,
0.7;0.3;-0.1;,
0.7;0.3;-0.5;,
0.7;0.3;-0.6;,
0.7;0.4;0.6;,
0.7;0.4;0.5;,
0.7;0.4;0.1;,
0.7;0.4;0;,
0.7;0.4;-0.4;,
0.7;0.4;-0.5;,
0.7;0.5;0.7;,
0.7;0.5;0.6;,
0.7;0.5;0.2;,
0.7;0.5;0.1;,
0.7;0.5;-0.3;,
0.7;0.5;-0.4;,
-0.6;0.2;0.7;,
-0.7;0.2;0.7;,
-0.7;0.1;0.7;,
-0.5;0.3;0.7;,
-0.6;0.3;0.7;,
-0.4;0.4;0.7;,
-0.5;0.4;0.7;,
-0.3;0;0.7;,
-0.7;0;0.7;,
-0.3;0.1;0.7;,
-0.4;0.5;0.7;,
-0.3;0.5;0.7;,
-0.1;0.2;0.7;,
-0.2;0.2;0.7;,
-0.2;0.1;0.7;,
0;0.3;0.7;,
-0.1;0.3;0.7;,
0.1;0.4;0.7;,
0;0.4;0.7;,
0.2;0;0.7;,
-0.2;0;0.7;,
0.2;0.1;0.7;,
0.1;0.5;0.7;,
0.2;0.5;0.7;,
0.4;0.2;0.7;,
0.3;0.2;0.7;,
0.3;0.1;0.7;,
0.5;0.3;0.7;,
0.4;0.3;0.7;,
0.6;0.4;0.7;,
0.5;0.4;0.7;,
0.7;0;0.7;,
0.3;0;0.7;,
0.7;0.1;0.7;,
0.6;0.5;0.7;,
0.7;0.5;0.7;,
-0.6;0.2;0.2;,
-0.7;0.2;0.2;,
-0.7;0.1;0.2;,
-0.5;0.3;0.2;,
-0.6;0.3;0.2;,
-0.4;0.4;0.2;,
-0.5;0.4;0.2;,
-0.3;0;0.2;,
-0.7;0;0.2;,
-0.3;0.1;0.2;,
-0.4;0.5;0.2;,
-0.3;0.5;0.2;,
-0.1;0.2;0.2;,
-0.2;0.2;0.2;,
-0.2;0.1;0.2;,
0;0.3;0.2;,
-0.1;0.3;0.2;,
0.1;0.4;0.2;,
0;0.4;0.2;,
0.2;0;0.2;,
-0.2;0;0.2;,
0.2;0.1;0.2;,
0.1;0.5;0.2;,
0.2;0.5;0.2;,
0.4;0.2;0.2;,
0.3;0.2;0.2;,
0.3;0.1;0.2;,
0.5;0.3;0.2;,
0.4;0.3;0.2;,
0.6;0.4;0.2;,
0.5;0.4;0.2;,
0.7;0;0.2;,
0.3;0;0.2;,
0.7;0.1;0.2;,
0.6;0.5;0.2;,
0.7;0.5;0.2;,
-0.6;0.2;-0.3;,
-0.7;0.2;-0.3;,
-0.7;0.1;-0.3;,
-0.5;0.3;-0.3;,
-0.6;0.3;-0.3;,
-0.4;0.4;-0.3;,
-0.5;0.4;-0.3;,
-0.3;0;-0.3;,
-0.7;0;-0.3;,
-0.3;0.1;-0.3;,
-0.4;0.5;-0.3;,
-0.3;0.5;-0.3;,
-0.1;0.2;-0.3;,
-0.2;0.2;-0.3;,
-0.2;0.1;-0.3;,
0;0.3;-0.3;,
-0.1;0.3;-0.3;,
0.1;0.4;-0.3;,
0;0.4;-0.3;,
0.2;0;-0.3;,
-0.2;0;-0.3;,
0.2;0.1;-0.3;,
0.1;0.5;-0.3;,
0.2;0.5;-0.3;,
0.4;0.2;-0.3;,
0.3;0.2;-0.3;,
0.3;0.1;-0.3;,
0.5;0.3;-0.3;,
0.4;0.3;-0.3;,
0.6;0.4;-0.3;,
0.5;0.4;-0.3;,
0.7;0;-0.3;,
0.3;0;-0.3;,
0.7;0.1;-0.3;,
0.6;0.5;-0.3;,
0.7;0.5;-0.3;,
-0.4;0.4;0.6;,
-0.4;0.5;0.6;,
-0.3;0.4;0.6;,
-0.3;0.5;0.6;,
0.1;0.4;0.6;,
0.1;0.5;0.6;,
0.2;0.4;0.6;,
0.2;0.5;0.6;,
0.6;0.4;0.6;,
0.6;0.5;0.6;,
0.7;0.4;0.6;,
0.7;0.5;0.6;,
-0.5;0.3;0.5;,
-0.5;0.4;0.5;,
-0.3;0.3;0.5;,
-0.3;0.4;0.5;,
0;0.3;0.5;,
0;0.4;0.5;,
0.2;0.3;0.5;,
0.2;0.4;0.5;,
0.5;0.3;0.5;,
0.5;0.4;0.5;,
0.7;0.3;0.5;,
0.7;0.4;0.5;,
-0.6;0.2;0.4;,
-0.6;0.3;0.4;,
-0.3;0.2;0.4;,
-0.3;0.3;0.4;,
-0.1;0.2;0.4;,
-0.1;0.3;0.4;,
0.2;0.2;0.4;,
0.2;0.3;0.4;,
0.4;0.2;0.4;,
0.4;0.3;0.4;,
0.7;0.2;0.4;,
0.7;0.3;0.4;,
-0.7;0;0.3;,
-0.7;0.1;0.3;,
-0.3;0;0.3;,
-0.7;0.2;0.3;,
-0.3;0.1;0.3;,
-0.3;0.2;0.3;,
-0.2;0;0.3;,
-0.2;0.1;0.3;,
0.2;0;0.3;,
-0.2;0.2;0.3;,
0.2;0.1;0.3;,
0.2;0.2;0.3;,
0.3;0;0.3;,
0.3;0.1;0.3;,
0.7;0;0.3;,
0.3;0.2;0.3;,
0.7;0.1;0.3;,
0.7;0.2;0.3;,
-0.4;0.4;0.1;,
-0.4;0.5;0.1;,
-0.3;0.4;0.1;,
-0.3;0.5;0.1;,
0.1;0.4;0.1;,
0.1;0.5;0.1;,
0.2;0.4;0.1;,
0.2;0.5;0.1;,
0.6;0.4;0.1;,
0.6;0.5;0.1;,
0.7;0.4;0.1;,
0.7;0.5;0.1;,
-0.5;0.3;0;,
-0.5;0.4;0;,
-0.3;0.3;0;,
-0.3;0.4;0;,
0;0.3;0;,
0;0.4;0;,
0.2;0.3;0;,
0.2;0.4;0;,
0.5;0.3;0;,
0.5;0.4;0;,
0.7;0.3;0;,
0.7;0.4;0;,
-0.6;0.2;-0.1;,
-0.6;0.3;-0.1;,
-0.3;0.2;-0.1;,
-0.3;0.3;-0.1;,
-0.1;0.2;-0.1;,
-0.1;0.3;-0.1;,
0.2;0.2;-0.1;,
0.2;0.3;-0.1;,
0.4;0.2;-0.1;,
0.4;0.3;-0.1;,
0.7;0.2;-0.1;,
0.7;0.3;-0.1;,
-0.7;0;-0.2;,
-0.7;0.1;-0.2;,
-0.3;0;-0.2;,
-0.7;0.2;-0.2;,
-0.3;0.1;-0.2;,
-0.3;0.2;-0.2;,
-0.2;0;-0.2;,
-0.2;0.1;-0.2;,
0.2;0;-0.2;,
-0.2;0.2;-0.2;,
0.2;0.1;-0.2;,
0.2;0.2;-0.2;,
0.3;0;-0.2;,
0.3;0.1;-0.2;,
0.7;0;-0.2;,
0.3;0.2;-0.2;,
0.7;0.1;-0.2;,
0.7;0.2;-0.2;,
-0.4;0.4;-0.4;,
-0.4;0.5;-0.4;,
-0.3;0.4;-0.4;,
-0.3;0.5;-0.4;,
0.1;0.4;-0.4;,
0.1;0.5;-0.4;,
0.2;0.4;-0.4;,
0.2;0.5;-0.4;,
0.6;0.4;-0.4;,
0.6;0.5;-0.4;,
0.7;0.4;-0.4;,
0.7;0.5;-0.4;,
-0.5;0.3;-0.5;,
-0.5;0.4;-0.5;,
-0.3;0.3;-0.5;,
-0.3;0.4;-0.5;,
0;0.3;-0.5;,
0;0.4;-0.5;,
0.2;0.3;-0.5;,
0.2;0.4;-0.5;,
0.5;0.3;-0.5;,
0.5;0.4;-0.5;,
0.7;0.3;-0.5;,
0.7;0.4;-0.5;,
-0.6;0.2;-0.6;,
-0.6;0.3;-0.6;,
-0.3;0.2;-0.6;,
-0.3;0.3;-0.6;,
-0.1;0.2;-0.6;,
-0.1;0.3;-0.6;,
0.2;0.2;-0.6;,
0.2;0.3;-0.6;,
0.4;0.2;-0.6;,
0.4;0.3;-0.6;,
0.7;0.2;-0.6;,
0.7;0.3;-0.6;,
-0.7;0;-0.7;,
-0.7;0.1;-0.7;,
-0.3;0;-0.7;,
-0.7;0.2;-0.7;,
-0.3;0.1;-0.7;,
-0.3;0.2;-0.7;,
-0.2;0;-0.7;,
-0.2;0.1;-0.7;,
0.2;0;-0.7;,
-0.2;0.2;-0.7;,
0.2;0.1;-0.7;,
0.2;0.2;-0.7;,
0.3;0;-0.7;,
0.3;0.1;-0.7;,
0.7;0;-0.7;,
0.3;0.2;-0.7;,
0.7;0.1;-0.7;,
0.7;0.2;-0.7;,
-0.7;0;0.3;,
-0.3;0;0.7;,
-0.7;0;0.7;,
-0.3;0;0.3;,
-0.2;0;0.3;,
0.2;0;0.7;,
-0.2;0;0.7;,
0.2;0;0.3;,
0.3;0;0.3;,
0.7;0;0.7;,
0.3;0;0.7;,
0.7;0;0.3;,
-0.7;0;-0.2;,
-0.3;0;0.2;,
-0.7;0;0.2;,
-0.3;0;-0.2;,
-0.2;0;-0.2;,
0.2;0;0.2;,
-0.2;0;0.2;,
0.2;0;-0.2;,
0.3;0;-0.2;,
0.7;0;0.2;,
0.3;0;0.2;,
0.7;0;-0.2;,
-0.7;0;-0.7;,
-0.3;0;-0.3;,
-0.7;0;-0.3;,
-0.3;0;-0.7;,
-0.2;0;-0.7;,
0.2;0;-0.3;,
-0.2;0;-0.3;,
0.2;0;-0.7;,
0.3;0;-0.7;,
0.7;0;-0.3;,
0.3;0;-0.3;,
0.7;0;-0.7;,
-0.7;0.2;0.7;,
-0.6;0.2;0.7;,
-0.6;0.2;0.4;,
-0.2;0.2;0.7;,
-0.1;0.2;0.7;,
-0.1;0.2;0.4;,
0.3;0.2;0.7;,
0.4;0.2;0.7;,
0.4;0.2;0.4;,
-0.3;0.2;0.4;,
-0.7;0.2;0.3;,
-0.3;0.2;0.3;,
0.2;0.2;0.4;,
-0.2;0.2;0.3;,
0.2;0.2;0.3;,
0.7;0.2;0.4;,
0.3;0.2;0.3;,
0.7;0.2;0.3;,
-0.7;0.2;0.2;,
-0.6;0.2;0.2;,
-0.6;0.2;-0.1;,
-0.2;0.2;0.2;,
-0.1;0.2;0.2;,
-0.1;0.2;-0.1;,
0.3;0.2;0.2;,
0.4;0.2;0.2;,
0.4;0.2;-0.1;,
-0.3;0.2;-0.1;,
-0.7;0.2;-0.2;,
-0.3;0.2;-0.2;,
0.2;0.2;-0.1;,
-0.2;0.2;-0.2;,
0.2;0.2;-0.2;,
0.7;0.2;-0.1;,
0.3;0.2;-0.2;,
0.7;0.2;-0.2;,
-0.7;0.2;-0.3;,
-0.6;0.2;-0.3;,
-0.6;0.2;-0.6;,
-0.2;0.2;-0.3;,
-0.1;0.2;-0.3;,
-0.1;0.2;-0.6;,
0.3;0.2;-0.3;,
0.4;0.2;-0.3;,
0.4;0.2;-0.6;,
-0.3;0.2;-0.6;,
-0.7;0.2;-0.7;,
-0.3;0.2;-0.7;,
0.2;0.2;-0.6;,
-0.2;0.2;-0.7;,
0.2;0.2;-0.7;,
0.7;0.2;-0.6;,
0.3;0.2;-0.7;,
0.7;0.2;-0.7;,
-0.6;0.3;0.7;,
-0.5;0.3;0.7;,
-0.5;0.3;0.5;,
-0.1;0.3;0.7;,
0;0.3;0.7;,
0;0.3;0.5;,
0.4;0.3;0.7;,
0.5;0.3;0.7;,
0.5;0.3;0.5;,
-0.3;0.3;0.5;,
-0.6;0.3;0.4;,
-0.3;0.3;0.4;,
0.2;0.3;0.5;,
-0.1;0.3;0.4;,
0.2;0.3;0.4;,
0.7;0.3;0.5;,
0.4;0.3;0.4;,
0.7;0.3;0.4;,
-0.6;0.3;0.2;,
-0.5;0.3;0.2;,
-0.5;0.3;0;,
-0.1;0.3;0.2;,
0;0.3;0.2;,
0;0.3;0;,
0.4;0.3;0.2;,
0.5;0.3;0.2;,
0.5;0.3;0;,
-0.3;0.3;0;,
-0.6;0.3;-0.1;,
-0.3;0.3;-0.1;,
0.2;0.3;0;,
-0.1;0.3;-0.1;,
0.2;0.3;-0.1;,
0.7;0.3;0;,
0.4;0.3;-0.1;,
0.7;0.3;-0.1;,
-0.6;0.3;-0.3;,
-0.5;0.3;-0.3;,
-0.5;0.3;-0.5;,
-0.1;0.3;-0.3;,
0;0.3;-0.3;,
0;0.3;-0.5;,
0.4;0.3;-0.3;,
0.5;0.3;-0.3;,
0.5;0.3;-0.5;,
-0.3;0.3;-0.5;,
-0.6;0.3;-0.6;,
-0.3;0.3;-0.6;,
0.2;0.3;-0.5;,
-0.1;0.3;-0.6;,
0.2;0.3;-0.6;,
0.7;0.3;-0.5;,
0.4;0.3;-0.6;,
0.7;0.3;-0.6;,
-0.5;0.4;0.7;,
-0.4;0.4;0.7;,
-0.4;0.4;0.6;,
0;0.4;0.7;,
0.1;0.4;0.7;,
0.1;0.4;0.6;,
0.5;0.4;0.7;,
0.6;0.4;0.7;,
0.6;0.4;0.6;,
-0.3;0.4;0.6;,
-0.5;0.4;0.5;,
-0.3;0.4;0.5;,
0.2;0.4;0.6;,
0;0.4;0.5;,
0.2;0.4;0.5;,
0.7;0.4;0.6;,
0.5;0.4;0.5;,
0.7;0.4;0.5;,
-0.5;0.4;0.2;,
-0.4;0.4;0.2;,
-0.4;0.4;0.1;,
0;0.4;0.2;,
0.1;0.4;0.2;,
0.1;0.4;0.1;,
0.5;0.4;0.2;,
0.6;0.4;0.2;,
0.6;0.4;0.1;,
-0.3;0.4;0.1;,
-0.5;0.4;0;,
-0.3;0.4;0;,
0.2;0.4;0.1;,
0;0.4;0;,
0.2;0.4;0;,
0.7;0.4;0.1;,
0.5;0.4;0;,
0.7;0.4;0;,
-0.5;0.4;-0.3;,
-0.4;0.4;-0.3;,
-0.4;0.4;-0.4;,
0;0.4;-0.3;,
0.1;0.4;-0.3;,
0.1;0.4;-0.4;,
0.5;0.4;-0.3;,
0.6;0.4;-0.3;,
0.6;0.4;-0.4;,
-0.3;0.4;-0.4;,
-0.5;0.4;-0.5;,
-0.3;0.4;-0.5;,
0.2;0.4;-0.4;,
0;0.4;-0.5;,
0.2;0.4;-0.5;,
0.7;0.4;-0.4;,
0.5;0.4;-0.5;,
0.7;0.4;-0.5;,
-0.4;0.5;0.7;,
-0.3;0.5;0.7;,
-0.4;0.5;0.6;,
-0.3;0.5;0.6;,
0.1;0.5;0.7;,
0.2;0.5;0.7;,
0.1;0.5;0.6;,
0.2;0.5;0.6;,
0.6;0.5;0.7;,
0.7;0.5;0.7;,
0.6;0.5;0.6;,
0.7;0.5;0.6;,
-0.4;0.5;0.2;,
-0.3;0.5;0.2;,
-0.4;0.5;0.1;,
-0.3;0.5;0.1;,
0.1;0.5;0.2;,
0.2;0.5;0.2;,
0.1;0.5;0.1;,
0.2;0.5;0.1;,
0.6;0.5;0.2;,
0.7;0.5;0.2;,
0.6;0.5;0.1;,
0.7;0.5;0.1;,
-0.4;0.5;-0.3;,
-0.3;0.5;-0.3;,
-0.4;0.5;-0.4;,
-0.3;0.5;-0.4;,
0.1;0.5;-0.3;,
0.2;0.5;-0.3;,
0.1;0.5;-0.4;,
0.2;0.5;-0.4;,
0.6;0.5;-0.3;,
0.7;0.5;-0.3;,
0.6;0.5;-0.4;,
0.7;0.5;-0.4;;


504;
3;0,1,2;,
3;3,1,0;,
3;4,5,6;,
3;7,5,4;,
3;8,9,10;,
3;11,9,8;,
3;12,3,0;,
3;13,3,12;,
3;14,7,4;,
3;15,7,14;,
3;16,11,8;,
3;17,11,16;,
3;18,19,20;,
3;21,19,18;,
3;22,23,24;,
3;25,23,22;,
3;26,27,28;,
3;29,27,26;,
3;30,31,32;,
3;33,31,30;,
3;34,35,36;,
3;37,35,34;,
3;38,39,40;,
3;41,39,38;,
3;42,43,44;,
3;45,43,42;,
3;46,47,48;,
3;49,47,46;,
3;50,51,52;,
3;53,51,50;,
3;54,55,56;,
3;57,55,54;,
3;58,59,60;,
3;61,59,58;,
3;62,63,64;,
3;65,63,62;,
3;66,57,54;,
3;67,57,66;,
3;68,61,58;,
3;69,61,68;,
3;70,65,62;,
3;71,65,70;,
3;72,73,74;,
3;75,73,72;,
3;76,77,78;,
3;79,77,76;,
3;80,81,82;,
3;83,81,80;,
3;84,85,86;,
3;87,85,84;,
3;88,89,90;,
3;91,89,88;,
3;92,93,94;,
3;95,93,92;,
3;96,97,98;,
3;99,97,96;,
3;100,101,102;,
3;103,101,100;,
3;104,105,106;,
3;107,105,104;,
3;108,109,110;,
3;111,109,108;,
3;112,113,114;,
3;115,113,112;,
3;116,117,118;,
3;119,117,116;,
3;120,111,108;,
3;121,111,120;,
3;122,115,112;,
3;123,115,122;,
3;124,119,116;,
3;125,119,124;,
3;126,127,128;,
3;129,127,126;,
3;130,131,132;,
3;133,131,130;,
3;134,135,136;,
3;137,135,134;,
3;138,139,140;,
3;141,139,138;,
3;142,143,144;,
3;145,143,142;,
3;146,147,148;,
3;149,147,146;,
3;150,151,152;,
3;153,151,150;,
3;154,155,156;,
3;157,155,154;,
3;158,159,160;,
3;161,159,158;,
3;162,163,164;,
3;164,163,165;,
3;166,167,168;,
3;168,167,169;,
3;170,171,172;,
3;172,171,173;,
3;164,165,174;,
3;174,165,175;,
3;168,169,176;,
3;176,169,177;,
3;172,173,178;,
3;178,173,179;,
3;164,174,180;,
3;180,174,181;,
3;168,176,182;,
3;182,176,183;,
3;172,178,184;,
3;184,178,185;,
3;164,180,186;,
3;186,180,187;,
3;168,182,188;,
3;188,182,189;,
3;172,184,190;,
3;190,184,191;,
3;164,186,192;,
3;192,186,193;,
3;168,188,194;,
3;194,188,195;,
3;172,190,196;,
3;196,190,197;,
3;198,199,200;,
3;200,199,201;,
3;202,203,204;,
3;204,203,205;,
3;206,207,208;,
3;208,207,209;,
3;200,201,210;,
3;210,201,211;,
3;204,205,212;,
3;212,205,213;,
3;208,209,214;,
3;214,209,215;,
3;200,210,216;,
3;216,210,217;,
3;204,212,218;,
3;218,212,219;,
3;208,214,220;,
3;220,214,221;,
3;200,216,222;,
3;222,216,223;,
3;204,218,224;,
3;224,218,225;,
3;208,220,226;,
3;226,220,227;,
3;200,222,228;,
3;228,222,229;,
3;204,224,230;,
3;230,224,231;,
3;208,226,232;,
3;232,226,233;,
3;234,235,236;,
3;236,235,237;,
3;238,239,240;,
3;240,239,241;,
3;242,243,244;,
3;244,243,245;,
3;236,237,246;,
3;246,237,247;,
3;240,241,248;,
3;248,241,249;,
3;244,245,250;,
3;250,245,251;,
3;236,246,252;,
3;252,246,253;,
3;240,248,254;,
3;254,248,255;,
3;244,250,256;,
3;256,250,257;,
3;236,252,258;,
3;258,252,259;,
3;240,254,260;,
3;260,254,261;,
3;244,256,262;,
3;262,256,263;,
3;236,258,264;,
3;264,258,265;,
3;240,260,266;,
3;266,260,267;,
3;244,262,268;,
3;268,262,269;,
3;270,271,272;,
3;273,274,270;,
3;275,276,273;,
3;277,272,278;,
3;279,280,275;,
3;279,272,277;,
3;279,270,272;,
3;279,275,273;,
3;279,273,270;,
3;281,280,279;,
3;282,283,284;,
3;285,286,282;,
3;287,288,285;,
3;289,284,290;,
3;291,292,287;,
3;291,284,289;,
3;291,282,284;,
3;291,287,285;,
3;291,285,282;,
3;293,292,291;,
3;294,295,296;,
3;297,298,294;,
3;299,300,297;,
3;301,296,302;,
3;303,304,299;,
3;303,296,301;,
3;303,294,296;,
3;303,299,297;,
3;303,297,294;,
3;305,304,303;,
3;306,307,308;,
3;309,310,306;,
3;311,312,309;,
3;313,308,314;,
3;315,316,311;,
3;315,308,313;,
3;315,306,308;,
3;315,311,309;,
3;315,309,306;,
3;317,316,315;,
3;318,319,320;,
3;321,322,318;,
3;323,324,321;,
3;325,320,326;,
3;327,328,323;,
3;327,320,325;,
3;327,318,320;,
3;327,323,321;,
3;327,321,318;,
3;329,328,327;,
3;330,331,332;,
3;333,334,330;,
3;335,336,333;,
3;337,332,338;,
3;339,340,335;,
3;339,332,337;,
3;339,330,332;,
3;339,335,333;,
3;339,333,330;,
3;341,340,339;,
3;342,343,344;,
3;345,346,342;,
3;347,348,345;,
3;349,344,350;,
3;351,352,347;,
3;351,344,349;,
3;351,342,344;,
3;351,347,345;,
3;351,345,342;,
3;353,352,351;,
3;354,355,356;,
3;357,358,354;,
3;359,360,357;,
3;361,356,362;,
3;363,364,359;,
3;363,356,361;,
3;363,354,356;,
3;363,359,357;,
3;363,357,354;,
3;365,364,363;,
3;366,367,368;,
3;369,370,366;,
3;371,372,369;,
3;373,368,374;,
3;375,376,371;,
3;375,368,373;,
3;375,366,368;,
3;375,371,369;,
3;375,369,366;,
3;377,376,375;,
3;378,379,380;,
3;380,379,381;,
3;382,383,384;,
3;384,383,385;,
3;386,387,388;,
3;388,387,389;,
3;390,391,392;,
3;392,391,393;,
3;394,395,396;,
3;396,395,397;,
3;398,399,400;,
3;400,399,401;,
3;402,403,404;,
3;404,403,405;,
3;406,407,408;,
3;408,407,409;,
3;410,411,412;,
3;412,411,413;,
3;414,415,416;,
3;415,417,418;,
3;416,415,418;,
3;418,417,419;,
3;420,421,422;,
3;421,423,424;,
3;422,421,424;,
3;424,423,425;,
3;426,427,428;,
3;427,429,430;,
3;428,427,430;,
3;430,429,431;,
3;432,433,434;,
3;434,433,435;,
3;436,437,438;,
3;438,437,439;,
3;440,441,442;,
3;442,441,443;,
3;444,445,446;,
3;446,445,447;,
3;448,449,450;,
3;450,449,451;,
3;452,453,454;,
3;454,453,455;,
3;456,457,458;,
3;458,457,459;,
3;460,461,462;,
3;462,461,463;,
3;464,465,466;,
3;466,465,467;,
3;468,469,470;,
3;469,471,472;,
3;470,469,472;,
3;472,471,473;,
3;474,475,476;,
3;475,477,478;,
3;476,475,478;,
3;478,477,479;,
3;480,481,482;,
3;481,483,484;,
3;482,481,484;,
3;484,483,485;,
3;486,487,488;,
3;488,487,489;,
3;490,491,492;,
3;492,491,493;,
3;494,495,496;,
3;496,495,497;,
3;498,499,500;,
3;500,499,501;,
3;502,503,504;,
3;504,503,505;,
3;506,507,508;,
3;508,507,509;,
3;510,511,512;,
3;512,511,513;,
3;514,515,516;,
3;516,515,517;,
3;518,519,520;,
3;520,519,521;,
3;522,523,524;,
3;523,525,526;,
3;524,523,526;,
3;526,525,527;,
3;528,529,530;,
3;529,531,532;,
3;530,529,532;,
3;532,531,533;,
3;534,535,536;,
3;535,537,538;,
3;536,535,538;,
3;538,537,539;,
3;540,541,542;,
3;543,541,540;,
3;544,545,546;,
3;547,545,544;,
3;548,549,550;,
3;551,549,548;,
3;552,553,554;,
3;555,553,552;,
3;556,557,558;,
3;559,557,556;,
3;560,561,562;,
3;563,561,560;,
3;564,565,566;,
3;567,565,564;,
3;568,569,570;,
3;571,569,568;,
3;572,573,574;,
3;575,573,572;,
3;576,577,578;,
3;579,580,581;,
3;582,583,584;,
3;578,585,586;,
3;576,578,586;,
3;586,585,587;,
3;581,588,589;,
3;579,581,589;,
3;589,588,590;,
3;584,591,592;,
3;582,584,592;,
3;592,591,593;,
3;594,595,596;,
3;597,598,599;,
3;600,601,602;,
3;596,603,604;,
3;594,596,604;,
3;604,603,605;,
3;599,606,607;,
3;597,599,607;,
3;607,606,608;,
3;602,609,610;,
3;600,602,610;,
3;610,609,611;,
3;612,613,614;,
3;615,616,617;,
3;618,619,620;,
3;614,621,622;,
3;612,614,622;,
3;622,621,623;,
3;617,624,625;,
3;615,617,625;,
3;625,624,626;,
3;620,627,628;,
3;618,620,628;,
3;628,627,629;,
3;630,631,632;,
3;633,634,635;,
3;636,637,638;,
3;632,639,640;,
3;630,632,640;,
3;640,639,641;,
3;635,642,643;,
3;633,635,643;,
3;643,642,644;,
3;638,645,646;,
3;636,638,646;,
3;646,645,647;,
3;648,649,650;,
3;651,652,653;,
3;654,655,656;,
3;650,657,658;,
3;648,650,658;,
3;658,657,659;,
3;653,660,661;,
3;651,653,661;,
3;661,660,662;,
3;656,663,664;,
3;654,656,664;,
3;664,663,665;,
3;666,667,668;,
3;669,670,671;,
3;672,673,674;,
3;668,675,676;,
3;666,668,676;,
3;676,675,677;,
3;671,678,679;,
3;669,671,679;,
3;679,678,680;,
3;674,681,682;,
3;672,674,682;,
3;682,681,683;,
3;684,685,686;,
3;687,688,689;,
3;690,691,692;,
3;686,693,694;,
3;684,686,694;,
3;694,693,695;,
3;689,696,697;,
3;687,689,697;,
3;697,696,698;,
3;692,699,700;,
3;690,692,700;,
3;700,699,701;,
3;702,703,704;,
3;705,706,707;,
3;708,709,710;,
3;704,711,712;,
3;702,704,712;,
3;712,711,713;,
3;707,714,715;,
3;705,707,715;,
3;715,714,716;,
3;710,717,718;,
3;708,710,718;,
3;718,717,719;,
3;720,721,722;,
3;723,724,725;,
3;726,727,728;,
3;722,729,730;,
3;720,722,730;,
3;730,729,731;,
3;725,732,733;,
3;723,725,733;,
3;733,732,734;,
3;728,735,736;,
3;726,728,736;,
3;736,735,737;,
3;738,739,740;,
3;740,739,741;,
3;742,743,744;,
3;744,743,745;,
3;746,747,748;,
3;748,747,749;,
3;750,751,752;,
3;752,751,753;,
3;754,755,756;,
3;756,755,757;,
3;758,759,760;,
3;760,759,761;,
3;762,763,764;,
3;764,763,765;,
3;766,767,768;,
3;768,767,769;,
3;770,771,772;,
3;772;771;773;;

}
